{
    "/js/app.js": "/js/app.js",
    "/css/app.css": "/css/app.css",
    "/css/welcome.css": "/css/welcome.css",
    "/css/style.css": "/css/style.css",
    "/css/lpad.css": "/css/lpad.css",
    "/js/buttonLpad.js": "/js/buttonLpad.js"
}
